Currently using GPU
data reading...
<class 'pandas.core.frame.DataFrame'>
RangeIndex: 4000 entries, 0 to 3999
Data columns (total 2 columns):
 #   Column  Non-Null Count  Dtype 
---  ------  --------------  ----- 
 0   source  4000 non-null   object
 1   target  4000 non-null   object
dtypes: object(2)
memory usage: 62.6+ KB
loading summarizer...
rouge1 15.704770000000002
rouge2 3.9790987499999995
rougeL 13.724759999999998
rougeLsum 13.719737499999997
gen_len 18.982750000000006
15.704770000000002|3.9790987499999995|13.724759999999998|13.719737499999997|18.982750000000006
